{
    "Famous People": {
        "When was Barack Obama born?": [
            [1.00, "August 4, 1961"],
            [0.99, "Barack Hussein Obama II was born August 4, 1961."],
            [1.00, "1961-08-04"],
            [1.00, "8/4/1961"],
            [0.99, "August 4, 1961,"],
            [0.99, "August 4, 1961)"]
            ]
     }
}

